MUX_NParameter/xrun.log
xrun: 23.09-s001: (c) Copyright 1995-2023 Cadence Design Systems, Inc.
TOOL:	xrun	23.09-s001: Started on May 18, 2025 at 15:05:29 EDT
xrun
	-Q
	-unbuffered
	-timescale 1ns/1ns
	-sysv
	-access +rw
	design.sv
	testbench.sv
	Top level design units:
		mux16x1_bus_tb
Loading snapshot worklib.mux16x1_bus_tb:sv .................... Done
xcelium> source /xcelium23.09/tools/xcelium/files/xmsimrc
xcelium> run
Tempo = 0 | S = 0000 | Y = 000
Tempo = 10 | S = 0001 | Y = 001
Tempo = 20 | S = 0010 | Y = 010
Tempo = 30 | S = 0011 | Y = 011
Tempo = 40 | S = 0100 | Y = 100
Tempo = 50 | S = 0101 | Y = 101
Tempo = 60 | S = 0110 | Y = 110
Tempo = 70 | S = 0111 | Y = 111
Tempo = 80 | S = 1000 | Y = 001
Tempo = 90 | S = 1001 | Y = 010
Tempo = 100 | S = 1010 | Y = 011
Tempo = 110 | S = 1011 | Y = 100
Tempo = 120 | S = 1100 | Y = 101
Tempo = 130 | S = 1101 | Y = 110
Tempo = 140 | S = 1110 | Y = 111
Tempo = 150 | S = 1111 | Y = 000
Simulation stopped via $stop(1) at time 160 NS + 0
./testbench.sv:47     $stop;
xcelium> TOOL:	xrun	23.09-s001: Exiting on May 18, 2025 at 15:05:30 EDT  (total: 00:00:01)
